1;Smug z szyby najlepiej pozbyc sie:;sola fizjologiczna;woda z octem;woda borowa;gliceryna;2
2;Jak nazywa sie turecki skoczek narciarski, ktory zdobyl w sezonie 2021/22 2 punkty do klasyfikacji Pucharu Swiata?;Baris Demirci;Muhammet Ali Bedir;Fatih Arda Ipcioglu;Vladimir Zografski;3
3;W ktorym roku splonela siedziba dzialajacej w Tarnowie Twojej Telewizji Kablowej?;1990;1993;1995;2000;4
4;Jak nazywal sie 34. prezydent Stanow Zjednoczonych Ameryki?;John F. Kennedy;Harry Truman;Richard Nixon;Dwight Eisenhower;4
5;Jaka nazwe nosil pierwszy solowy album Kazika Staszewskiego, ktory ujrzal swiatlo dzienne w 1991 roku?;Spalam sie;Spalaj sie;Oddalenie;Spokojnie;1
6;Srednica kola bedacego ringiem dla wojownikow sumo wynosi:;4,41 cm;4,50 cm;4,55 cm;4,76 cm;3
7;W ktorym wieku panowal Przemysl II?;X;XI;XII;XIII;4
8;W jakim miescie toczy sie akcja gry "Crash Time 4"?;w Warszawie;w Kolonii;w Berlinie;w Moskwie;2
9;Jakim rodzajnikiem okresla sie niemieckie slowo oznaczajace kota?;der;die;das;slowo nie ma rodzajnika;2
10;Ktory estonski skoczek narciarski zajal najwyzsze w historii tego kraju, 6 miejsce w konkursie Pucharu Swiata?;Kaarel Nurmsalu;Artti Aigro;Jaan Juris;Jens Salumae;1
