1;Jak nazywa sie piaty album zespolu Led Zeppelin?;Houses of the Holy;Presence;Led Zeppelin V;Physical Grafitti;1
2;Kto zostal zwyciezca Pucharu Kontynentalnego w skokach narciarskich w sezonie 2002/03?;Balthasar Schneider;Bastian Kaltenboeck;Morten Solem;Stefan Thurnbichler;4
3;Co jest glowna nagroda w prawdziwym teleturnieju Milionerzy?;uscisk dloni od Huberta Urbanskiego;milion zlotych;kilogram zlota;mozliwosc wystepu na Eurowizji;2
4;Autorem mangi, na ktorej oparto anime "Initial D" jest:;Hajime Kanzaka;Tatsuki Fujimoto;Shuichi Shigeno;Koji Inada;3
5;W jakim stanie znajduje sie amerykanskie miasto St. Petersburg?;Floryda;Nevada;Alabama;nie ma takiego miasta w Stanach Zjednoczonych;1
6;Kto zagral Laske w filmie "Chlopaki nie placza"?;Wojciech Klata;Tomasz Bajer;Slawomir Pacek;Marcin Kolodynski;2
7;Gdzie znajduje sie siedziba niemieckiego kanalu telewizji publicznej ZDF?;w Berlinie;w Kolonii;w Monachium;w Moguncji;4
8;Ktora z wymienionych piosenek zespolu IRA nie pochodzi z plyty "1993 rok"?;Nadzieja;Wiara;Wyznanie;Deszcz;1
9;Ktore finskie slowo mozna przetlumaczyc na polski jako "Dziekuje"?;Perkele;Hyvae;Kiitos;Pitkalle;3
10;Jaki napis widnial na planszy emitowanej wraz z piskliwym tonem na zakonczenie nadawania przez kanaly TVP do poczatku lat 90.?;"Wylacz telewizor";"Nie zapomnij wylaczyc odbiornika";"Za chwile dalszy ciag programu";"Od teraz program tylko dla doroslych";2
